Introduction to quantitative analysis with R - 4 Opening and exploring data
…
The variables in this tibble contain additional information, stored as attributes. Data imported from other sources do not typically include these attributes by default, but these are able to uphold any information that was stored in the ‘Variable view’ window of SPSS.

4.4 Selecting variables

Often, we will not need every variable in a downloaded dataset to carry out an analysis, and we may wish to create a smaller analysis tibble. We may also wish to select individual variables from the tibble to apply functions to them without including the entire dataset.

To select one or more variable and return them as a new tibble, we can use the select function from tidyverse’s dplyr package.

For example, we do not need all the variables contained in the EHS general dataset. The variables we are interested in keeping are the unique identifier variables (serialanon), the survey weights (aagfh21), the tenure type response with 4 options (tenure4x), and the Government office region (govreg1):

# Variables can be selected using their names
select(ehs_general, serialanon, aagfh21, tenure4x, gorehs)

# A tibble: 9,752 × 4
   serialanon  aagfh21   tenure4x           gorehs                       
   <dbl+lbl>   <dbl+lbl> <dbl+lbl>          <dbl+lbl>                    
 1 20220000001 3934.     1 [owner occupied]  7 [East]                    
 2 20220000005 1580.     1 [owner occupied] 10 [South West]              
 3 20220000006 3360.     1 [owner occupied]  6 [West Midlands]           
 4 20220000012 1368.     1 [owner occupied]  5 [East Midlands]           
 5 20220000013 9847.     1 [owner occupied] 10 [South West]              
 6 20220000017 3262.     1 [owner occupied]  6 [West Midlands]           
 7 20220000022 6584.     1 [owner occupied]  4 [Yorkshire and the Humber]
 8 20220000025  389.     1 [owner occupied] 10 [South West]              
 9 20220000026 4193.     2 [private rented]  7 [East]                    
10 20220000027 3589.     1 [owner occupied]  2 [North West]              
# ℹ 9,742 more rows

# Or their column number
select(ehs_general, 1, 2, 5, 7)

# A tibble: 9,752 × 4
   serialanon  aagfh21   tenure4x           gorehs                       
   <dbl+lbl>   <dbl+lbl> <dbl+lbl>          <dbl+lbl>                    
 1 20220000001 3934.     1 [owner occupied]  7 [East]                    
 2 20220000005 1580.     1 [owner occupied] 10 [South West]              
 3 20220000006 3360.     1 [owner occupied]  6 [West Midlands]           
 4 20220000012 1368.     1 [owner occupied]  5 [East Midlands]           
 5 20220000013 9847.     1 [owner occupied] 10 [South West]              
 6 20220000017 3262.     1 [owner occupied]  6 [West Midlands]           
 7 20220000022 6584.     1 [owner occupied]  4 [Yorkshire and the Humber]
 8 20220000025  389.     1 [owner occupied] 10 [South West]              
 9 20220000026 4193.     2 [private rented]  7 [East]                    
10 20220000027 3589.     1 [owner occupied]  2 [North West]              
# ℹ 9,742 more rows
…
ends_with("xyz") returns all variables with names ending xyz

contains("xyz") returns all variables that have xyz within their name

Or based on whether they match a condition:

where(is.numeric) returns all variables that are classed as numeric

For a full list of these selection helpers, access the helpfile using ?tidyr_tidy_select.

The select function can also be used to remove variables from a tibble by adding a - before the variable name or number. For example, to return the EHS general dataset without the unique identifier variable, we use:

select(ehs_general, -serialanon)

# A tibble: 9,752 × 8
   aagfh21   paired         tenure8x tenure4x tenure2x gorehs   region3x govreg1
   <dbl+lbl> <dbl+lbl>      <dbl+lb> <dbl+lb> <dbl+lb> <dbl+lb> <dbl+lb> <dbl+l>
 1 3934.     1 [Paired]     1 [owne… 1 [owne… 1 [Priv…  7 [Eas… 3 [Rest… 4 [Res…
 2 1580.     1 [Paired]     1 [owne… 1 [owne… 1 [Priv… 10 [Sou… 3 [Rest… 4 [Res…
 3 3360.     1 [Paired]     1 [owne… 1 [owne… 1 [Priv…  6 [Wes… 3 [Rest… 2 [Mid…
 4 1368.     0 [Not paired] 1 [owne… 1 [owne… 1 [Priv…  5 [Eas… 3 [Rest… 2 [Mid…
 5 9847.     1 [Paired]     1 [owne… 1 [owne… 1 [Priv… 10 [Sou… 3 [Rest… 4 [Res…
 6 3262.     0 [Not paired] 1 [owne… 1 [owne… 1 [Priv…  6 [Wes… 3 [Rest… 2 [Mid…
 7 6584.     0 [Not paired] 1 [owne… 1 [owne… 1 [Priv…  4 [Yor… 1 [Nort… 1 [Nor…
 8  389.     0 [Not paired] 1 [owne… 1 [owne… 1 [Priv… 10 [Sou… 3 [Rest… 4 [Res…
 9 4193.     1 [Paired]     2 [priv… 2 [priv… 1 [Priv…  7 [Eas… 3 [Rest… 4 [Res…
10 3589.     1 [Paired]     1 [owne… 1 [owne… 1 [Priv…  2 [Nor… 1 [Nort… 1 [Nor…
# ℹ 9,742 more rows
…
For example, we may wish to return rows from the EHS dataset that were privately rented. To check which number refers to privately rented, we can check the labels attribute of the tenure4x variable which shows the labels from the SPSS file:

attributes(ehs_general_reduced$tenure4x)$labels

     Does not apply           No Answer      owner occupied      private rented 
                 -9                  -8                   1                   2 
    local authority housing association 
                  3                   4 

Private rented is given by a 2 in the current dataset, therefore our conditional statement will return rows where the tenure4x variable takes the value 2.

filter(ehs_general_reduced, tenure4x == 2)

# A tibble: 1,735 × 4
   serialanon  aagfh21   tenure4x           gorehs                       
   <dbl+lbl>   <dbl+lbl> <dbl+lbl>          <dbl+lbl>                    
 1 20220000026 4193.     2 [private rented]  7 [East]                    
 2 20220000039  423.     2 [private rented]  7 [East]                    
 3 20220000075 1017.     2 [private rented]  7 [East]                    
 4 20220000092 1554.     2 [private rented]  7 [East]                    
 5 20220000113 5254.     2 [private rented]  8 [London]                  
 6 20220000132 7609.     2 [private rented]  4 [Yorkshire and the Humber]
 7 20220000134  775.     2 [private rented]  5 [East Midlands]           
 8 20220000135 1313.     2 [private rented]  1 [North East]              
 9 20220000187 1528.     2 [private rented]  8 [London]                  
10 20220000198  557.     2 [private rented] 10 [South West]              
# ℹ 1,725 more rows
…
attributes(ehs_general_reduced$gorehs)$labels

          Does not apply                No answer               North East 
                      -9                       -8                        1 
              North West Yorkshire and the Humber            East Midlands 
                       2                        4                        5 
           West Midlands                     East                   London 
                       6                        7                        8 
              South East               South West 
                       9                       10 

# North East is region 1
filter(ehs_general_reduced, tenure4x == 2, gorehs == 1)

# A tibble: 76 × 4
   serialanon  aagfh21   tenure4x           gorehs        
   <dbl+lbl>   <dbl+lbl> <dbl+lbl>          <dbl+lbl>     
 1 20220000135  1313.    2 [private rented] 1 [North East]
 2 20220001633  3849.    2 [private rented] 1 [North East]
 3 20220002101  1016.    2 [private rented] 1 [North East]
 4 20220002817   323.    2 [private rented] 1 [North East]
 5 20220003959  2800.    2 [private rented] 1 [North East]
 6 20220004183   636.    2 [private rented] 1 [North East]
 7 20220005151 10707.    2 [private rented] 1 [North East]
 8 20220005393  2189.    2 [private rented] 1 [North East]
 9 20220005697  2059.    2 [private rented] 1 [North East]
10 20220005754   625.    2 [private rented] 1 [North East]
# ℹ 66 more rows

4.6 Pipes

When creating an analysis-ready dataset, we often want to combine functions such as select and filter. Previously, these would need to be carried out separately and a new object would need to be created or overwritten at each step, clogging up the environment.

In tidyverse, we combine functions within a single process using the ‘pipe’ symbol %>%, which is read as ‘and then’ within the code. For example, if we wanted to just select the unique identifiers of respondents that were privately renting in the North East, we could do this in a single process:

ehs_general_reduced %>% 
  filter(tenure4x == 2, gorehs == 1) %>% 
  select(serialanon)

# A tibble: 76 × 1
   serialanon 
   <dbl+lbl>  
 1 20220000135
 2 20220001633
 3 20220002101
 4 20220002817
 5 20220003959
 6 20220004183
 7 20220005151
 8 20220005393
 9 20220005697
10 20220005754
# ℹ 66 more rows
…
